%YAML 1.1
%TAG !u! tag:unity3d.com,2011:
--- !u!114 &11400000
MonoBehaviour:
  m_ObjectHideFlags: 0
  m_CorrespondingSourceObject: {fileID: 0}
  m_PrefabInstance: {fileID: 0}
  m_PrefabAsset: {fileID: 0}
  m_GameObject: {fileID: 0}
  m_Enabled: 1
  m_EditorHideFlags: 0
  m_Script: {fileID: 11500000, guid: 465dcd162782e9b48993522845509d1f, type: 3}
  m_Name: Mage
  m_EditorClassIdentifier: 
  id: 5
  Name: Mage
  img:
  - {fileID: 21300000, guid: 48aa6c140503e7943aafb60684944f08, type: 3}
  - {fileID: 21300000, guid: 330b52624b7815b4ba01630349c20428, type: 3}
  - {fileID: 21300000, guid: f5d507ebe74f15142b22db149f7f55eb, type: 3}
  GameObject: {fileID: 0}
  hpMax: 3
  currentHp: 3
  damage: 6
  atackSpeed: 1
  moveSpeed: 1
  range: 10
  abilitieCost: 6
  jewelCost: 5
  cardLevel: 0
  price: 0
  hero: 0
  unlock: 0
  levelRequest: 0
  levelInGame: 0
  enemy: 0
